 -100 50 -100
 -100 100 -100
 -100 100 20
 -100 50 20
 -100 50 -100
 -180 50 -100
 -180 100 -100
 -180 100 20
 -180 50 20
 -180 50 -100
 -180 50 20
 -100 50 20
 -100 100 20
 -180 100 20
 -180 100 -100
 100 100 -100